Linear Model – Lab2
…
  Home

Linear Model – Lab2

Menghan Yuan

Sept 18, 2024

↑

library(readxl)
cps_data <- read_excel("data/cps09mar.xlsx")
cps_data

## # A tibble: 50,742 × 12
##      age female  hisp education earnings hours  week union uncov region  race
##    <dbl>  <dbl> <dbl>     <dbl>    <dbl> <dbl> <dbl> <dbl> <dbl>  <dbl> <dbl>
##  1    52      0     0        12   146000    45    52     0     0      1     1
##  2    38      0     0        18    50000    45    52     0     0      1     1
##  3    38      0     0        14    32000    40    51     0     0      1     1
##  4    41      1     0        13    47000    40    52     0     0      1     1
##  5    42      0     0        13   161525    50    52     1     0      1     1
##  6    66      1     0        13    33000    40    52     0     0      1     1
##  7    51      0     0        16    37000    44    52     0     0      1     1
##  8    49      1     0        16    37000    44    52     0     0      1     1
##  9    33      0     0        16    80000    40    52     0     0      1     1
## 10    52      1     0        14    32000    40    52     0     0      1     1
##    marital
##      <dbl>
##  1       1
##  2       1
##  3       1
##  4       1
##  5       1
##  6       5
##  7       1
##  8       1
##  9       1
## 10       1
## # ℹ 50,732 more rows
…
Calculate a new column for hourly wage using the following equation, and call it wage, then take the logarithm of it and call it lwage.
\[
\begin{aligned}
\text{wage} &= \frac{\text{earnings}}{\text{hours}\times\text{week}}  \\
\text{lwage} &= \log (\text{wage})
\end{aligned}
\]

cps_data <- cps_data %>% 
    mutate(wage =  earnings/(hours*week),
           lwage = log(wage))
cps_data

## # A tibble: 50,742 × 16
##      age female  hisp education earnings hours  week union uncov region  race
##    <dbl>  <dbl> <dbl>     <dbl>    <dbl> <dbl> <dbl> <dbl> <dbl>  <dbl> <dbl>
##  1    52      0     0        12   146000    45    52     0     0      1     1
##  2    38      0     0        18    50000    45    52     0     0      1     1
##  3    38      0     0        14    32000    40    51     0     0      1     1
##  4    41      1     0        13    47000    40    52     0     0      1     1
##  5    42      0     0        13   161525    50    52     1     0      1     1
##  6    66      1     0        13    33000    40    52     0     0      1     1
##  7    51      0     0        16    37000    44    52     0     0      1     1
##  8    49      1     0        16    37000    44    52     0     0      1     1
##  9    33      0     0        16    80000    40    52     0     0      1     1
## 10    52      1     0        14    32000    40    52     0     0      1     1
##    marital experience  exp2     wage    lwage
##      <dbl>      <dbl> <dbl>    <dbl>    <dbl>
##  1       1         34 11.56 62.39316 4.133456
##  2       1         14  1.96 21.36752 3.061872
##  3       1         18  3.24 15.68627 2.752786
##  4       1         22  4.84 22.59615 3.117780
##  5       1         23  5.29 62.125   4.129148
##  6       5         47 22.09 15.86538 2.764140
##  7       1         29  8.41 16.17133 2.783240
##  8       1         27  7.29 16.17133 2.783240
##  9       1         11  1.21 38.46154 3.649659
## 10       1         32 10.24 15.38462 2.733368
## # ℹ 50,732 more rows
…
Multivariate Regression

Now let’s carry out a multivariate regression model by introducing two additional regressors: experience and its square (\(\text{experience}^2/100\), we divide by 100 to simplify reporting).

This time, we use the sub-sample of single (never married) Asian men, which has 268 observations.

sample2 <- cps_data %>% filter(race==4 & marital==7 & female==0)
sample2

## # A tibble: 268 × 16
##      age female  hisp education earnings hours  week union uncov region  race
##    <dbl>  <dbl> <dbl>     <dbl>    <dbl> <dbl> <dbl> <dbl> <dbl>  <dbl> <dbl>
##  1    21      0     0        13    11960    36    52     0     0      1     4
##  2    38      0     0        18   125000    50    52     0     0      1     4
##  3    25      0     0        14    35000    40    52     0     0      1     4
##  4    55      0     0        20   110000    60    52     0     0      1     4
##  5    27      0     1        18    52000    40    48     0     0      1     4
##  6    27      0     0        12    26000    40    52     0     0      1     4
##  7    37      0     0        16    40000    40    52     0     0      1     4
##  8    22      0     0        14    12000    40    52     0     0      1     4
##  9    25      0     0        16    40000    40    52     0     0      1     4
## 10    24      0     0        16    40000    40    52     0     0      1     4
##    marital experience  exp2      wage    lwage
##      <dbl>      <dbl> <dbl>     <dbl>    <dbl>
##  1       7          2  0.04  6.388889 1.854560
##  2       7         14  1.96 48.07692  3.872802
##  3       7          5  0.25 16.82692  2.822980
##  4       7         29  8.41 35.25641  3.562647
##  5       7          3  0.09 27.08333  3.298919
##  6       7          9  0.81 12.5      2.525729
##  7       7         15  2.25 19.23077  2.956512
##  8       7          2  0.04  5.769231 1.752539
##  9       7          3  0.09 19.23077  2.956512
## 10       7          2  0.04 19.23077  2.956512
## # ℹ 258 more rows
…
