Linear Regression Model – Lecture
…
the intercept \(\beta_0\) is
equal to the conditional mean of \(y_i\) for the \(x_{1,i}=0\) subpopulation (men).

the slope \(\beta_1\) is equal
to the difference in the conditional means between \(x_{1,i}=1\) (women) and \(x_{1,i}=0\) (men).

We considered a study of bone mineral density (in g/cm\(^2\)) for rats given isoflavone and for
rats in a control group. We want to test if isoflavone have an effect on
bone mineral density.

# load dataset
bonedensity <- read_csv("https://raw.githubusercontent.com/my1396/course_dataset/refs/heads/main/bonedensity.csv")
bonedensity

## # A tibble: 30 × 2
##    density group
##      <dbl> <dbl>
##  1   0.228     1
##  2   0.207     1
##  3   0.234     1
##  4   0.22      1
##  5   0.217     1
##  6   0.228     1
##  7   0.209     1
##  8   0.221     1
##  9   0.204     1
## 10   0.22      1
## # ℹ 20 more rows
…
Run the regression.

# define group to be a categorical covariate (facotr)
bonedensity <- bonedensity %>% mutate(group = factor(group))
bonedensity

## # A tibble: 30 × 2
##    density group
##      <dbl> <fct>
##  1   0.228 1    
##  2   0.207 1    
##  3   0.234 1    
##  4   0.22  1    
##  5   0.217 1    
##  6   0.228 1    
##  7   0.209 1    
##  8   0.221 1    
##  9   0.204 1    
## 10   0.22  1    
## # ℹ 20 more rows
…
